generalizeR Tutorial • generalizeR
…
Since we are working with high schools, we can use the Common Core
database provided in this package. For information on each of the
columns and the source of the data, run ?cc.

cc

## # A tibble: 98,563 × 43
##        ncessch sch_name     st    mstreet1 mcity phone website lea_name sch_type
##          <dbl> <chr>        <chr> <chr>    <chr> <chr> <chr>   <chr>       <int>
##  1 10000500870 Ala Avenue … AL    600 E A… Albe… (256… http:/… Albertv…        1
##  2 10000500871 Albertville… AL    402 E M… Albe… (256… http:/… Albertv…        1
##  3 10000500879 Evans Elem … AL    901 W M… Albe… (256… http:/… Albertv…        1
##  4 10000500889 Albertville… AL    1100 Ho… Albe… (256… http:/… Albertv…        1
##  5 10000501616 Big Spring … AL    257 Cou… Albe… (256… http:/… Albertv…        1
##  6 10000502150 Albertville… AL    1100 Ho… Albe… (256… http:/… Albertv…        1
##  7 10000600193 Kate Duncan… AL    6077 Ma… Grant (256… http:/… Marshal…        1
##  8 10000600872 Asbury Sch   AL    1990 As… Albe… (256… http:/… Marshal…        1
##  9 10000600876 Claysville … AL    140 Cla… Gunt… (256… http:/… Marshal…        1
## 10 10000600877 Douglas Ele… AL    P O Box… Doug… (256… http:/… Marshal…        1
## # ℹ 98,553 more rows
## # ℹ 34 more variables: g_pk_offered <chr>, g_kg_offered <chr>,
## #   g_1_offered <chr>, g_2_offered <chr>, g_3_offered <chr>, g_4_offered <chr>,
## #   g_5_offered <chr>, g_6_offered <chr>, g_7_offered <chr>, g_8_offered <chr>,
## #   g_9_offered <chr>, g_10_offered <chr>, g_11_offered <chr>,
## #   g_12_offered <chr>, level <chr>, leaid <int>, charter <dbl>,
## #   titlei_status_text <chr>, magnet_text <chr>, nslp_status <chr>, …
…
To filter out the non-charter schools, we can use the variable in our
data frame called charter that takes on the value of 0 for
non-charter schools and 1 for charter schools. Finally, to select high
schools (which almost always include grades 9 to 12), we can use one of
the grade indicator variables, say g_10_offered. After
combining all of these filters, we get:

inference_pop <- cc %>% 
  filter(st == "TX") %>% 
  filter(charter == 1) %>% 
  filter(g_10_offered == "Yes")
inference_pop

## # A tibble: 330 × 43
##         ncessch sch_name    st    mstreet1 mcity phone website lea_name sch_type
##           <dbl> <chr>       <chr> <chr>    <chr> <chr> <chr>   <chr>       <int>
##  1 480000407173 POR VIDA A… TX    1135 MI… SAN … (210… "http:… POR VID…        4
##  2 480000409116 CORPUS CHR… TX    1135 MI… SAN … (361… "http:… POR VID…        4
##  3 480000409460 CESAR E CH… TX    3701 MU… CORP… (361… "http:… POR VID…        4
##  4 480001407174 GEORGE GER… TX    6944 SU… SAN … (210… ""      GEORGE …        4
##  5 480001607239 DALLAS CAN… TX    4621 RO… DALL… (214… "http:… TEXANS …        4
##  6 480001607847 DALLAS CAN… TX    325 W 1… DALL… (214… "http:… TEXANS …        4
##  7 480001607910 HOUSTON CA… TX    325 W 1… DALL… (214… "http:… TEXANS …        4
##  8 480001608434 SAN ANTONI… TX    325 W 1… DALL… (210… "http:… TEXANS …        4
##  9 480001608908 FORT WORTH… TX    6220 WE… FORT… (817… "http:… TEXANS …        4
## 10 480001609028 FORT WORTH… TX    325 W 1… DALL… (817… "http:… TEXANS …        4
## # ℹ 320 more rows
## # ℹ 34 more variables: g_pk_offered <chr>, g_kg_offered <chr>,
## #   g_1_offered <chr>, g_2_offered <chr>, g_3_offered <chr>, g_4_offered <chr>,
## #   g_5_offered <chr>, g_6_offered <chr>, g_7_offered <chr>, g_8_offered <chr>,
## #   g_9_offered <chr>, g_10_offered <chr>, g_11_offered <chr>,
## #   g_12_offered <chr>, level <chr>, leaid <int>, charter <dbl>,
## #   titlei_status_text <chr>, magnet_text <chr>, nslp_status <chr>, …
…
